set_var: requires non-null variable name
get_var: requires non-null variable name
get_var_if_set: requires non-null variable name
set_var: requires non-null variable name
get_var: requires non-null variable name
get_var_if_set: requires non-null variable name
